<svg width="16" height="16" viewBox="0 0 16 16" fill="none" xmlns="http://www.w3.org/2000/svg">
<path fill-rule="evenodd" clip-rule="evenodd" d="M9.67178 5.50071C9.17843 5.17106 8.59841 4.99512 8.00507 4.99512C7.20942 4.99512 6.44635 5.31119 5.88375 5.8738C5.32114 6.43641 5.00507 7.19947 5.00507 7.99512C5.00507 8.58846 5.18101 9.16848 5.51066 9.66183C5.8403 10.1552 6.30884 10.5397 6.85702 10.7668C7.40519 10.9938 8.00839 11.0532 8.59034 10.9375C9.17228 10.8217 9.70683 10.536 10.1264 10.1164C10.5459 9.69688 10.8317 9.16233 10.9474 8.58039C11.0632 7.99845 11.0038 7.39525 10.7767 6.84707C10.5496 6.29889 10.1651 5.83035 9.67178 5.50071ZM7.1736 8.55069C7.06371 8.38624 7.00507 8.1929 7.00507 7.99512C7.00507 7.7299 7.11042 7.47555 7.29796 7.28801C7.4855 7.10047 7.73985 6.99512 8.00507 6.99512C8.20285 6.99512 8.39619 7.05377 8.56064 7.16365C8.72508 7.27353 8.85326 7.42971 8.92895 7.61243C9.00463 7.79516 9.02444 7.99623 8.98585 8.19021C8.94727 8.38419 8.85203 8.56237 8.71217 8.70222C8.57232 8.84208 8.39414 8.93732 8.20016 8.9759C8.00618 9.01449 7.80511 8.99468 7.62238 8.919C7.43966 8.84331 7.28348 8.71514 7.1736 8.55069Z" fill="black"/>
<path fill-rule="evenodd" clip-rule="evenodd" d="M7.02511 0.0551927H9.02511C9.19769 0.0541877 9.3676 0.0978656 9.5183 0.181978C9.669 0.266091 9.79537 0.387774 9.88511 0.535193L10.7351 1.95519C10.8248 2.10261 10.9512 2.22429 11.1019 2.30841C11.2526 2.39252 11.4225 2.4362 11.5951 2.43519H13.7851C13.9596 2.43625 14.1308 2.48295 14.2817 2.57067C14.4326 2.65838 14.5579 2.78405 14.6451 2.93519L15.7051 4.85519C15.7929 5.00721 15.8391 5.17966 15.8391 5.35519C15.8391 5.53073 15.7929 5.70317 15.7051 5.85519L14.7051 7.54519C14.6173 7.69721 14.5711 7.86966 14.5711 8.04519C14.5711 8.22073 14.6173 8.39317 14.7051 8.54519L15.7051 10.2352C15.7929 10.3872 15.8391 10.5597 15.8391 10.7352C15.8391 10.9107 15.7929 11.0832 15.7051 11.2352L14.6451 13.0752C14.5579 13.2263 14.4326 13.352 14.2817 13.4397C14.1308 13.5274 13.9596 13.5741 13.7851 13.5752H11.5951C11.4225 13.5742 11.2526 13.6179 11.1019 13.702C10.9512 13.7861 10.8248 13.9078 10.7351 14.0552L9.88511 15.4552C9.7966 15.6045 9.67077 15.7281 9.51998 15.8141C9.3692 15.9 9.19865 15.9452 9.02511 15.9452H7.02511C6.85156 15.9452 6.68102 15.9 6.53023 15.8141C6.37945 15.7281 6.25361 15.6045 6.16511 15.4552L5.27511 14.0352C5.18537 13.8878 5.059 13.7661 4.9083 13.682C4.7576 13.5979 4.58769 13.5542 4.41511 13.5552H2.22511C2.05059 13.5541 1.87939 13.5074 1.72852 13.4197C1.57765 13.332 1.45236 13.2063 1.36511 13.0552L0.295107 11.1552C0.207339 11.0032 0.161133 10.8307 0.161133 10.6552C0.161133 10.4797 0.207339 10.3072 0.295107 10.1552L1.29511 8.46519C1.38288 8.31317 1.42908 8.14073 1.42908 7.96519C1.42908 7.78966 1.38288 7.61721 1.29511 7.46519L0.295107 5.77519C0.207339 5.62317 0.161133 5.45073 0.161133 5.27519C0.161133 5.09966 0.207339 4.92721 0.295107 4.77519L1.36511 2.93519C1.45236 2.78405 1.57765 2.65838 1.72852 2.57067C1.87939 2.48295 2.05059 2.43625 2.22511 2.43519H4.41511C4.58769 2.4362 4.7576 2.39252 4.9083 2.30841C5.059 2.22429 5.18537 2.10261 5.27511 1.95519L6.16511 0.535193C6.25485 0.387774 6.38122 0.266091 6.53192 0.181978C6.68262 0.0978656 6.85252 0.0541877 7.02511 0.0551927ZM9.02511 2.98519L8.46511 2.05519H7.54511L6.98511 2.98519C6.71798 3.42785 6.341 3.79396 5.89071 4.04802C5.44042 4.30207 4.93212 4.43544 4.41511 4.43519H2.80511L2.62511 4.75519L2.32511 5.26519L3.03511 6.49519C3.31544 6.96179 3.46354 7.49586 3.46354 8.04019C3.46354 8.58452 3.31544 9.1186 3.03511 9.58519L2.32511 10.7752L2.61511 11.2652L2.80511 11.6052H4.41511C4.93212 11.6049 5.44042 11.7383 5.89071 11.9924C6.341 12.2464 6.71798 12.6125 6.98511 13.0552L7.54511 13.9852H8.46511L9.02511 13.0552C9.28727 12.6051 9.66211 12.231 10.1127 11.9698C10.5634 11.7085 11.0742 11.5691 11.5951 11.5652H13.2051L13.3951 11.2352L13.6851 10.7352L12.9651 9.54519C12.6848 9.0786 12.5367 8.54452 12.5367 8.00019C12.5367 7.45586 12.6848 6.92179 12.9651 6.45519L13.6451 5.26519L13.3451 4.74519L13.1651 4.43519H11.5951C11.0781 4.43544 10.5698 4.30207 10.1195 4.04802C9.66922 3.79396 9.29223 3.42785 9.02511 2.98519Z" fill="black"/>
</svg>
